[
    {
        "isDefault" : true,
        "authClient": {
            "clientName" : "Bilirubin Chart",
            "clientId": "bilirubin_chart",
            "redirectUri" : "http://localhost:8080/hspc-bilirubin-app/static/bilirubin-chart/"
        },
        "launchUri" : "http://localhost:8080/hspc-bilirubin-app/static/bilirubin-chart/launch.html",
        "logoUri" : "http://localhost:8080/hspc-bilirubin-app/static/bilirubin-chart/images/bilirubin.png"
    },
    {
        "authClient": {
            "clientName": "Patient Data Manager",
            "clientId": "patient_data_manager",
            "redirectUri": "http://localhost:8080/hspc-patient-data-manager/static/patient-data-manager/"
        },
        "launchUri": "http://localhost:8080/hspc-patient-data-manager/static/patient-data-manager/launch.html",
        "logoUri": "http://localhost:8080/hspc-patient-data-manager/static/patient-data-manager/images/pdm.png"
    },
    {
        "authClient": {
            "clientName" : "My Web App",
            "clientId": "my_web_app",
            "redirectUri" : "http://localhost:8000/fhir-app/"
        },
        "launchUri" : "http://localhost:8000/fhir-app/launch.html",
        "logoUri" : "https://fhir.smarthealthit.org/images/apps/my.png"
    }
]